Hands-on Exercise 05
…
# Summarize the data by a grouping variable (e.g., region)
summarized_data <- hunan_combined %>%
  group_by(County) %>%
  summarize(mean_income = mean(avg_wage, na.rm = TRUE))

# View the summarized data
summarized_data

Simple feature collection with 88 features and 2 fields
Geometry type: POLYGON
Dimension:     XY
Bounding box:  xmin: 108.7831 ymin: 24.6342 xmax: 114.2544 ymax: 30.12812
Geodetic CRS:  WGS 84
# A tibble: 88 × 3
   County    mean_income                                                geometry
   <chr>           <dbl>                                           <POLYGON [°]>
 1 Anhua           30544 ((111.603 28.63946, 111.6001 28.63997, 111.5957 28.638…
 2 Anren           28058 ((113.1716 26.82807, 113.1688 26.82901, 113.1639 26.83…
 3 Anxiang         31935 ((112.0608 29.76031, 112.0602 29.76537, 112.0598 29.77…
 4 Baojing         30843 ((109.7009 28.83019, 109.7001 28.83364, 109.6996 28.83…
 5 Chaling         31251 ((113.7685 27.11099, 113.7688 27.11442, 113.7686 27.11…
 6 Changning       28518 ((112.6115 26.6039, 112.6064 26.60362, 112.6009 26.602…
 7 Changsha        54540 ((112.9418 28.03516, 112.9427 28.03147, 112.9431 28.02…
 8 Chengbu         28597 ((110.4426 26.69583, 110.4415 26.6991, 110.4382 26.704…
 9 Chenxi          33580 ((110.2577 28.22052, 110.2525 28.2212, 110.2474 28.218…
10 Cili            33099 ((110.8777 29.69041, 110.868 29.6909, 110.8643 29.6922…
# ℹ 78 more rows
…
